tutek:


dobry format feedu: 


		data.addColumn('string','field1');
		data.addColumn('number','field2');
		data.addRows([
          ['field1',33],
          ['2004',2],
          ['2005',3],
          ['2006',4],
          ['2007',4]
        ]);
		
		field 1 = data
		field 2 = temperatura
		
		
pola do feed 1: created_at = data
							field1 = temperatura
							
